Analysis v2
…
# Generate difference columns
df_wide_diff <- df_wide1
for (attrib in unique(data_long$Attribute)) {
    df_wide_diff <- df_wide_diff %>%
        mutate(
            !!paste0("Difference_", attrib) :=
                df_wide_diff[[paste0(samples_to_compare[1], "_", attrib)]] - 
                df_wide_diff[[paste0(samples_to_compare[2], "_", attrib)]]
        )
}

df_wide_diff

# A tibble: 12,100 × 20
   Sample_ID  Time `Free Limonene_Sweet` `Starch-Limonene IC_Sweet`
   <fct>     <dbl>                 <dbl>                      <dbl>
 1 1             0                     0                          0
 2 1             1                     0                          0
 3 1             2                     0                          0
 4 1             3                     0                          0
 5 1             4                     0                          0
 6 1             5                     0                          0
 7 1             6                     0                          1
 8 1             7                     0                          1
 9 1             8                     0                          1
10 1             9                     0                          1
# ℹ 12,090 more rows
# ℹ 16 more variables: `Free Limonene_Bitter` <dbl>,
#   `Starch-Limonene IC_Bitter` <dbl>, `Free Limonene_Sour` <dbl>,
#   `Starch-Limonene IC_Sour` <dbl>, `Free Limonene_Citrus` <dbl>,
#   `Starch-Limonene IC_Citrus` <dbl>, `Free Limonene_Stale` <dbl>,
#   `Starch-Limonene IC_Stale` <dbl>, `Free Limonene_Cohesive` <dbl>,
#   `Starch-Limonene IC_Cohesive` <dbl>, Difference_Sweet <dbl>, …
…
